﻿kannaDa transliteration in Latin characters:
--------------------------------
éno? én máDtidiya?

haudá?? adénu?
--------------------------------

In kannaDa
--------------------------------
ಏನೊ? ಏನ್ ಮಾಡ್ತಿದಿಯ?

ಹೌದಾ?? ಅದೇನು?
--------------------------------

In telgu
--------------------------------
ఏనొ? ఏన్ మాడ్తిదియ?

హౌదా?? అదేను?
--------------------------------

In samskruta
--------------------------------
एनॊ? एन् माड्तिदिय?

हौदा?? अदेनु?
--------------------------------

In maLayáLam
--------------------------------
ഏനൊ? ഏന഼ മാഡ഼തിദിയ?

ഹൌദാ?? അദേനു?
--------------------------------

In brahmi
--------------------------------
एဦ၄? एဦ၆ ါးဟ၆ဢ်ဤ်ာ?

ဳ၅ဤး?? စဤेဦြ?
--------------------------------

In tamiL
--------------------------------
ஏୈொ? ஏୈ் மாड்திदிய?

ஹௌदா?? அदேୈு?
--------------------------------
